<?xml version="1.0" encoding="UTF-8" standalone="no"?>
<!-- https://cristalix.ru/ -->
<!DOCTYPE svg PUBLIC "-//W3C//DTD SVG 1.1//EN" "http://www.w3.org/Graphics/SVG/1.1/DTD/svg11.dtd">
<svg width="100%" height="100%" viewBox="0 0 1000 1000" version="1.1" xmlns="http://www.w3.org/2000/svg" xmlns:xlink="http://www.w3.org/1999/xlink" xml:space="preserve" xmlns:serif="http://www.serif.com/" style="fill-rule:evenodd;clip-rule:evenodd;stroke-linejoin:round;stroke-miterlimit:2;">
    <g transform="matrix(3.4803,0,0,3.4803,-714.442,-2471.67)">
        <path d="M355.313,849.265C367.132,861.084 355.043,892.364 328.333,919.074C301.623,945.783 270.343,957.872 258.524,946.054L245.76,933.289L245.691,933.219C233.989,921.345 246.084,890.136 272.74,863.48C299.449,836.771 330.729,824.681 342.548,836.5L355.313,849.265ZM275.033,865.773C299.699,841.107 328.587,829.942 339.502,840.857C350.417,851.772 339.252,880.66 314.586,905.326C289.919,929.993 261.031,941.157 250.117,930.242C239.202,919.328 250.366,890.44 275.033,865.773ZM351.626,898.362C362.122,900.946 374.515,902.439 387.785,902.439L388.227,902.439C425.796,902.345 456.225,890.283 456.225,875.439L456.225,891.596C456.225,908.311 425.558,921.881 387.785,921.881C369.401,921.881 352.7,918.666 340.4,913.44C344.652,908.448 348.41,903.379 351.626,898.362ZM363.47,872.57C371.024,873.704 379.222,874.326 387.785,874.326L388.227,874.326C425.796,874.232 456.225,862.17 456.225,847.326L456.225,863.484C456.225,880.198 425.558,893.768 387.785,893.768C376.441,893.768 365.739,892.544 356.316,890.379C359.627,884.172 362.042,878.152 363.47,872.57ZM354.989,841.951C364.83,844.114 376.167,845.348 388.228,845.348L388.67,845.347C426.239,845.253 456.667,833.191 456.667,818.348L456.667,834.505C456.667,851.22 426.001,864.79 388.228,864.79C380.057,864.79 372.219,864.155 364.956,862.991C365.23,856.181 363.534,850.495 359.628,846.589L354.989,841.951ZM456.667,805.455C456.667,822.169 426.001,835.739 388.228,835.739C350.455,835.739 319.788,822.169 319.788,805.455L319.788,787.403L319.788,787.305C319.91,770.634 350.53,757.119 388.228,757.119C426.001,757.119 456.667,770.689 456.667,787.403L456.667,805.455ZM319.788,828.207L319.788,818.348C319.788,821.52 321.178,824.566 323.73,827.393C322.445,827.606 321.13,827.877 319.788,828.207ZM388.228,760.362C423.111,760.362 451.433,772.894 451.433,788.33C451.433,803.766 423.111,816.298 388.228,816.298C353.344,816.298 325.023,803.766 325.023,788.33C325.023,772.894 353.344,760.362 388.228,760.362Z" style="fill:white;"/>
    </g>
</svg>
