<?xml version="1.0" encoding="UTF-8" standalone="no"?>
<!-- https://cristalix.ru/ -->
<!DOCTYPE svg PUBLIC "-//W3C//DTD SVG 1.1//EN" "http://www.w3.org/Graphics/SVG/1.1/DTD/svg11.dtd">
<svg width="100%" height="100%" viewBox="0 0 1000 1000" version="1.1" xmlns="http://www.w3.org/2000/svg" xmlns:xlink="http://www.w3.org/1999/xlink" xml:space="preserve" xmlns:serif="http://www.serif.com/" style="fill-rule:evenodd;clip-rule:evenodd;stroke-linejoin:round;stroke-miterlimit:2;">
    <g transform="matrix(1,0,0,1,7.05185,-0.0140066)">
        <path d="M813.633,434.214C818.41,434.214 822.566,437.485 823.688,442.128C870.361,638.68 722.798,849.242 500,846.422C308.82,844.002 153.578,691.195 153.578,500C153.578,308.805 308.805,153.578 500,153.578C580.472,153.578 658.316,181.589 720.257,232.614C722.411,234.407 723.751,236.994 723.97,239.789C724.19,242.583 723.272,245.348 721.424,247.456C704.397,266.89 660.778,316.636 644.032,335.734C640.357,339.925 634.03,340.474 629.687,336.979C592.908,307.699 547.206,291.671 500,291.671C385.02,291.671 291.671,385.02 291.671,500C291.671,614.98 385.02,708.329 500,708.329C590.529,708.329 657.297,661.682 681.653,585.737C682.863,581.992 682.21,577.895 679.894,574.714C677.579,571.532 673.882,569.65 669.947,569.65C632.655,569.636 541.296,569.636 510.404,569.636C504.658,569.636 500,564.978 500,559.232C500,534.012 500,469.838 500,444.618C500,441.859 501.096,439.212 503.047,437.261C504.998,435.31 507.644,434.214 510.404,434.214C559.761,434.214 769.746,434.214 813.633,434.214Z" style="fill:white;"/>
    </g>
</svg>
