<?xml version="1.0" encoding="UTF-8" standalone="no"?>
<!-- https://cristalix.ru/ -->
<!DOCTYPE svg PUBLIC "-//W3C//DTD SVG 1.1//EN" "http://www.w3.org/Graphics/SVG/1.1/DTD/svg11.dtd">
<svg width="100%" height="100%" viewBox="0 0 1000 1000" version="1.1" xmlns="http://www.w3.org/2000/svg" xmlns:xlink="http://www.w3.org/1999/xlink" xml:space="preserve" xmlns:serif="http://www.serif.com/" style="fill-rule:evenodd;clip-rule:evenodd;stroke-linejoin:round;stroke-miterlimit:2;">
    <g transform="matrix(28.1736,0,0,28.1736,-12647.3,-6230.53)">
        <path d="M467.12,249.237C466.859,248.593 466.234,248.172 465.54,248.172L459.523,248.172C458.828,248.172 458.203,248.593 457.942,249.237C457.729,249.764 457.472,250.399 457.259,250.927C456.999,251.571 456.373,251.992 455.679,251.992L451.153,251.992C451.153,251.992 457.608,237.37 459.386,233.343C459.658,232.725 460.27,232.327 460.945,232.327L464.203,232.327C464.877,232.327 465.488,232.724 465.762,233.341C467.544,237.366 474.021,251.992 474.021,251.992L469.383,251.992C468.689,251.992 468.064,251.571 467.803,250.927C467.59,250.399 467.333,249.764 467.12,249.237ZM462.538,244.07C463.104,244.07 463.633,243.789 463.95,243.32C464.267,242.851 464.33,242.255 464.119,241.73C463.4,239.94 462.531,237.777 462.531,237.777C462.531,237.777 461.662,239.94 460.943,241.73C460.732,242.255 460.795,242.851 461.112,243.32C461.429,243.789 461.958,244.07 462.524,244.07L462.538,244.07ZM473.444,231.967C473.541,231.755 473.55,231.512 473.469,231.294C473.388,231.075 473.223,230.897 473.011,230.799C472.279,230.463 471.202,229.968 470.469,229.632C470.332,229.569 470.246,229.43 470.251,229.28C470.255,229.13 470.349,228.997 470.49,228.942C472.359,228.217 476.878,226.462 478.486,225.838C478.638,225.779 478.807,225.785 478.956,225.853C479.104,225.921 479.218,226.046 479.273,226.2C479.847,227.826 481.461,232.397 482.129,234.288C482.179,234.43 482.139,234.588 482.028,234.689C481.917,234.791 481.756,234.816 481.619,234.753C480.845,234.398 479.686,233.865 478.939,233.522C478.527,233.333 478.038,233.488 477.81,233.88C477.221,234.895 476.154,236.736 475.777,237.386C475.686,237.543 475.585,237.693 475.474,237.837C475.314,238.044 475.053,238.383 474.753,238.772C473.577,240.296 471.504,240.807 469.754,240.004C469.753,240.003 469.753,240.003 469.753,240.003C469.753,240.003 472.445,234.142 473.444,231.967Z" style="fill:white;fill-rule:nonzero;"/>
    </g>
</svg>
