<?xml version="1.0" encoding="UTF-8" standalone="no"?>
<!DOCTYPE svg PUBLIC "-//W3C//DTD SVG 1.1//EN" "http://www.w3.org/Graphics/SVG/1.1/DTD/svg11.dtd">
<svg width="100%" height="100%" viewBox="0 0 584 584" version="1.1" xmlns="http://www.w3.org/2000/svg" xmlns:xlink="http://www.w3.org/1999/xlink" xml:space="preserve" xmlns:serif="http://www.serif.com/" style="fill-rule:evenodd;clip-rule:evenodd;stroke-linejoin:round;stroke-miterlimit:2;">
    <g>
        <path d="M286.426,246.706L402.839,130.293C408.801,124.331 416.888,120.981 425.319,120.981C433.751,120.981 441.837,124.331 447.799,130.293L447.8,130.293C453.762,136.256 457.112,144.342 457.112,152.774C457.112,161.205 453.762,169.292 447.8,175.254L331.387,291.667L447.8,408.08C453.762,414.042 457.112,422.128 457.112,430.56C457.112,438.991 453.762,447.078 447.8,453.04L447.799,453.041C441.837,459.003 433.751,462.352 425.319,462.352C416.888,462.352 408.801,459.003 402.839,453.041L286.426,336.628L170.013,453.041C164.051,459.003 155.965,462.352 147.533,462.352C139.101,462.352 131.015,459.003 125.053,453.041C125.053,453.04 125.052,453.04 125.052,453.04C119.09,447.078 115.741,438.991 115.741,430.56C115.741,422.128 119.09,414.042 125.052,408.08L241.465,291.667L125.052,175.254C119.09,169.292 115.741,161.205 115.741,152.774C115.741,144.342 119.09,136.256 125.052,130.293L125.053,130.293C131.015,124.331 139.101,120.981 147.533,120.981C155.965,120.981 164.051,124.331 170.013,130.293L286.426,246.706Z" style="fill:rgb(54,122,220);"/>
    </g>
</svg>
