<?xml version="1.0" encoding="UTF-8" standalone="no"?>
<!-- https://cristalix.ru/ by ONE1SIDE https://vk.com/one1side -->
<!DOCTYPE svg PUBLIC "-//W3C//DTD SVG 1.1//EN" "http://www.w3.org/Graphics/SVG/1.1/DTD/svg11.dtd">
<svg width="100%" height="100%" viewBox="0 0 1000 1000" version="1.1" xmlns="http://www.w3.org/2000/svg" xmlns:xlink="http://www.w3.org/1999/xlink" xml:space="preserve" xmlns:serif="http://www.serif.com/" style="fill-rule:evenodd;clip-rule:evenodd;stroke-linejoin:round;stroke-miterlimit:2;">
    <g transform="matrix(0.989725,0,0,0.989725,-8902.38,-1083.56)">
        <path d="M9835.08,1569.22C9838.56,1569.22 9841.44,1571.94 9841.63,1575.42C9842.02,1582.34 9842.59,1593.42 9842.59,1600C9842.59,1608.8 9842.26,1617.53 9841.6,1626.18C9841.22,1631.04 9843.44,1635.73 9847.44,1638.52C9857.57,1645.59 9877.04,1659.16 9887.64,1666.56C9892.12,1669.68 9894.33,1675.17 9893.26,1680.53C9886.64,1712.76 9876.1,1744.06 9861.86,1773.72C9859.48,1778.63 9854.41,1781.67 9848.95,1781.44C9836.03,1780.93 9812.28,1779.97 9799.94,1779.46C9795.06,1779.27 9790.44,1781.67 9787.81,1785.78C9769.87,1813.52 9748.02,1838.51 9723.05,1859.95C9719.33,1863.11 9717.58,1868.01 9718.43,1872.82C9720.59,1885 9724.77,1908.42 9727.04,1921.16C9728,1926.55 9725.68,1931.98 9721.13,1935.01C9693.67,1953.13 9664.08,1967.81 9633.04,1978.72C9627.88,1980.5 9622.15,1979.06 9618.45,1975.05C9609.68,1965.56 9593.61,1948.13 9585.25,1939.05C9581.94,1935.46 9576.97,1933.9 9572.2,1934.95C9548.92,1939.96 9524.76,1942.59 9500,1942.59C9491.2,1942.59 9482.47,1942.26 9473.82,1941.6C9468.97,1941.22 9464.27,1943.44 9461.48,1947.44C9454.41,1957.57 9440.84,1977.04 9433.44,1987.64C9430.32,1992.12 9424.83,1994.33 9419.47,1993.26C9387.24,1986.64 9355.94,1976.11 9326.28,1961.87C9321.37,1959.48 9318.33,1954.41 9318.56,1948.95C9319.07,1936.03 9320.03,1912.28 9320.54,1899.94C9320.74,1895.06 9318.33,1890.44 9314.22,1887.81C9286.48,1869.87 9261.49,1848.02 9240.05,1823.05C9236.89,1819.33 9231.99,1817.58 9227.18,1818.43C9215,1820.59 9191.58,1824.77 9178.84,1827.04C9173.45,1828 9168.02,1825.68 9164.99,1821.13C9146.87,1793.67 9132.19,1764.08 9121.28,1733.04C9119.5,1727.88 9120.94,1722.15 9124.95,1718.45C9134.44,1709.68 9151.87,1693.62 9160.95,1685.25C9164.54,1681.94 9166.1,1676.97 9165.05,1672.2C9160.04,1648.92 9157.41,1624.76 9157.41,1600C9157.41,1591.2 9157.74,1582.47 9158.4,1573.82C9158.78,1568.97 9156.56,1564.27 9152.56,1561.48C9142.43,1554.41 9122.96,1540.84 9112.36,1533.44C9107.88,1530.32 9105.67,1524.83 9106.75,1519.47C9113.36,1487.24 9123.9,1455.94 9138.14,1426.28C9140.52,1421.37 9145.59,1418.33 9151.05,1418.56C9163.97,1419.07 9187.72,1420.04 9200.06,1420.54C9204.94,1420.74 9209.56,1418.33 9212.19,1414.22C9230.13,1386.48 9251.98,1361.49 9276.95,1340.05C9280.67,1336.89 9282.43,1331.99 9281.57,1327.18C9279.41,1315 9275.23,1291.58 9272.96,1278.84C9272,1273.45 9274.32,1268.02 9278.87,1264.99C9306.33,1246.87 9335.92,1232.19 9366.96,1221.28C9372.12,1219.5 9377.85,1220.94 9381.55,1224.95C9390.32,1234.44 9406.39,1251.87 9414.75,1260.95C9418.06,1264.54 9423.03,1266.1 9427.8,1265.05C9451.08,1260.04 9475.24,1257.41 9500,1257.41C9508.76,1257.41 9517.48,1257.75 9526.16,1258.41C9531.02,1258.79 9535.72,1256.57 9538.51,1252.57C9545.58,1242.44 9559.16,1222.96 9566.56,1212.36C9569.68,1207.88 9575.17,1205.67 9580.53,1206.75C9612.76,1213.36 9644.06,1223.89 9673.72,1238.13C9678.63,1240.52 9681.67,1245.59 9681.44,1251.05C9680.93,1263.96 9679.97,1287.69 9679.47,1300.04C9679.27,1304.91 9681.67,1309.53 9685.78,1312.16C9693.8,1317.34 9701.62,1322.86 9709.23,1328.72C9710.61,1329.8 9711.51,1331.39 9711.72,1333.13C9711.92,1334.88 9711.42,1336.64 9710.32,1338.01C9701.62,1348.84 9681.51,1373.9 9672.22,1385.47C9669.54,1388.81 9664.68,1389.4 9661.28,1386.8C9614.91,1351.71 9558.29,1332.66 9500,1332.66C9352.45,1332.66 9232.67,1452.45 9232.67,1600C9232.67,1747.55 9352.45,1867.34 9500,1867.34C9630.73,1867.34 9739.66,1773.3 9762.8,1649.26C9763.22,1646.9 9762.58,1644.47 9761.04,1642.63C9759.5,1640.79 9757.22,1639.73 9754.83,1639.73C9726.88,1639.71 9645.69,1639.71 9618.22,1639.71C9612.83,1639.71 9607.94,1642.86 9605.71,1647.77C9587.5,1687.99 9547,1716 9500,1716C9435.98,1716 9384,1664.02 9384,1600C9384,1535.98 9435.98,1484 9500,1484C9549.56,1484 9591.89,1515.14 9608.5,1558.91C9610.87,1565.11 9616.81,1569.2 9623.45,1569.2C9664.75,1569.22 9804.02,1569.22 9835.08,1569.22ZM9500,1548.97C9528.16,1548.97 9551.03,1571.84 9551.03,1600C9551.03,1628.16 9528.16,1651.03 9500,1651.03C9471.84,1651.03 9448.97,1628.16 9448.97,1600C9448.97,1571.84 9471.84,1548.97 9500,1548.97Z" style="fill:white;"/>
    </g>
</svg>
