<?xml version="1.0" encoding="UTF-8" standalone="no"?>
<!-- https://cristalix.ru/ by ONE1SIDE https://vk.com/one1side -->
<!DOCTYPE svg PUBLIC "-//W3C//DTD SVG 1.1//EN" "http://www.w3.org/Graphics/SVG/1.1/DTD/svg11.dtd">
<svg width="100%" height="100%" viewBox="0 0 1000 1000" version="1.1" xmlns="http://www.w3.org/2000/svg" xmlns:xlink="http://www.w3.org/1999/xlink" xml:space="preserve" xmlns:serif="http://www.serif.com/" style="fill-rule:evenodd;clip-rule:evenodd;stroke-linejoin:round;stroke-miterlimit:2;">
    <g transform="matrix(1,0,0,1,-10000,-1100)">
        <path d="M10087.7,1408.51C10087.7,1405.34 10089.4,1402.42 10092.1,1400.84C10094.9,1399.27 10098.3,1399.27 10101,1400.86C10162.3,1436.23 10438.8,1595.9 10438.8,1595.9C10459.6,1607.9 10472.4,1630.09 10472.4,1654.1C10472.4,1654.1 10472.4,1973.73 10472.4,2044.79C10472.4,2047.97 10470.8,2050.91 10468,2052.5C10465.2,2054.09 10461.9,2054.09 10459.1,2052.5C10459.1,2052.5 10459.1,2052.5 10459.1,2052.5C10380.1,2006.91 10207.5,1907.26 10128.6,1861.67C10103.3,1847.06 10087.7,1820.05 10087.7,1790.83C10087.7,1699.65 10087.7,1500.35 10087.7,1409.17C10087.7,1408.95 10087.7,1408.73 10087.7,1408.51ZM10899,1400.86C10901.7,1399.27 10905.1,1399.27 10907.9,1400.84C10910.6,1402.42 10912.3,1405.34 10912.3,1408.51C10912.3,1408.73 10912.3,1408.95 10912.3,1409.17L10912.3,1790.83C10912.3,1820.05 10896.7,1847.06 10871.4,1861.67L10540.9,2052.5C10538.1,2054.09 10534.8,2054.09 10532,2052.5C10529.3,2050.91 10527.6,2047.97 10527.6,2044.79C10527.6,1973.73 10527.6,1654.1 10527.6,1654.1C10527.6,1630.09 10540.4,1607.9 10561.2,1595.9C10561.2,1595.9 10837.7,1436.23 10899,1400.86ZM10309.4,1630.02C10309.4,1627.92 10310.5,1625.98 10312.3,1624.93C10314.1,1623.88 10316.4,1623.88 10318.2,1624.94C10331.8,1632.8 10357.5,1647.72 10370,1654.93C10374.4,1657.47 10377.1,1662.16 10377.1,1667.24L10377.1,1895.99C10377.1,1897.82 10376.1,1899.5 10374.5,1900.42C10372.9,1901.33 10371,1901.33 10369.4,1900.41C10356.2,1892.76 10329.3,1877.2 10316.5,1869.78C10312.1,1867.24 10309.4,1862.55 10309.4,1857.47L10309.4,1630.02ZM10684.5,1651.72C10685.5,1651.16 10686.1,1650.13 10686.1,1649.01C10686.1,1643.56 10686.1,1627.65 10686.1,1627.65C10686.1,1622.57 10688.8,1617.88 10693.2,1615.34C10705.6,1608.13 10731.4,1593.21 10745,1585.35C10746.8,1584.3 10749,1584.29 10750.9,1585.34C10752.7,1586.39 10753.8,1588.33 10753.8,1590.43C10753.8,1590.43 10753.8,1604.74 10753.8,1611.46C10753.8,1612.17 10754.2,1612.82 10754.8,1613.17C10755.4,1613.52 10756.1,1613.52 10756.7,1613.16C10763.4,1609.33 10778.8,1600.38 10778.8,1600.38C10780.6,1599.32 10782.9,1599.32 10784.7,1600.37C10786.5,1601.42 10787.6,1603.36 10787.6,1605.46C10787.6,1605.46 10787.6,1628.24 10787.6,1637.03C10787.6,1637.74 10788,1638.38 10788.6,1638.74C10789.2,1639.09 10790,1639.09 10790.6,1638.73C10794.6,1636.42 10801.2,1632.57 10801.2,1632.57C10803.1,1631.52 10805.3,1631.51 10807.1,1632.56C10808.9,1633.61 10810.1,1635.55 10810.1,1637.65C10810.1,1653.36 10810.1,1683.14 10810.1,1697.55C10810.1,1702.62 10807.4,1707.31 10803,1709.86C10803,1709.86 10767.3,1730.48 10756.7,1736.61C10754.9,1737.66 10753.8,1739.6 10753.8,1741.7C10753.8,1760.01 10753.8,1846.16 10753.8,1846.16C10753.8,1851.24 10751.1,1855.93 10746.7,1858.47C10733.9,1865.89 10707,1881.45 10693.8,1889.1C10692.2,1890.02 10690.2,1890.02 10688.6,1889.1C10687.1,1888.19 10686.1,1886.5 10686.1,1884.68L10686.1,1773.87C10686.1,1773.3 10685.8,1772.77 10685.3,1772.48C10684.8,1772.2 10684.2,1772.2 10683.7,1772.48C10673.9,1778.15 10637.5,1799.22 10637.5,1799.22C10635.9,1800.13 10634,1800.13 10632.4,1799.22C10630.8,1798.31 10629.8,1796.62 10629.8,1794.79C10629.8,1779.51 10629.8,1748.41 10629.8,1733.6C10629.8,1728.53 10632.5,1723.84 10636.9,1721.29C10636.9,1721.29 10646.8,1715.58 10650.7,1713.32C10651.6,1712.76 10652.2,1711.73 10652.2,1710.62C10652.2,1703.61 10652.2,1678.62 10652.2,1678.62C10652.2,1673.55 10654.9,1668.86 10659.3,1666.31C10659.3,1666.31 10678.8,1655.03 10684.5,1651.72ZM10183,1558.13C10183,1556.03 10184.2,1554.09 10186,1553.04C10187.8,1552 10190,1552 10191.9,1553.05C10205.4,1560.91 10231.2,1575.83 10243.6,1583.04C10248,1585.59 10250.7,1590.28 10250.7,1595.35L10250.7,1824.1C10250.7,1825.93 10249.8,1827.62 10248.2,1828.53C10246.6,1829.44 10244.6,1829.44 10243.1,1828.53C10229.8,1820.87 10202.9,1805.31 10190.1,1797.89C10185.7,1795.35 10183,1790.66 10183,1785.59L10183,1558.13ZM10128.6,1353.13C10125.9,1351.6 10124.3,1348.78 10124.3,1345.73C10124.3,1342.67 10125.9,1339.85 10128.6,1338.33C10128.6,1338.33 10128.6,1338.33 10128.6,1338.33C10207.5,1292.74 10380.1,1193.09 10459.1,1147.5C10484.4,1132.88 10515.6,1132.88 10540.9,1147.5L10871.4,1338.33C10874.1,1339.85 10875.7,1342.67 10875.7,1345.73C10875.7,1348.78 10874.1,1351.6 10871.4,1353.13C10810.9,1388.1 10533.6,1548.17 10533.6,1548.17C10512.8,1560.18 10487.2,1560.18 10466.4,1548.17C10466.4,1548.17 10189.1,1388.1 10128.6,1353.13ZM10430.3,1347.86C10430.8,1347.54 10431.2,1346.93 10431.2,1346.28C10431.2,1345.63 10430.8,1345.03 10430.3,1344.71C10421.5,1339.64 10394.5,1324.1 10394.5,1324.1C10392.6,1323.05 10391.5,1321.11 10391.5,1319.01C10391.5,1316.91 10392.6,1314.97 10394.5,1313.92C10408.1,1306.07 10433.8,1291.17 10446.3,1283.97C10450.7,1281.43 10456.1,1281.43 10460.5,1283.96C10460.5,1283.96 10490.2,1301.04 10498.8,1305.99C10500.2,1306.81 10501.9,1306.81 10503.4,1305.98C10511.6,1301.26 10538.7,1285.58 10538.7,1285.58C10543.1,1283.04 10548.5,1283.04 10552.9,1285.57C10565.8,1292.96 10592.7,1308.48 10605.9,1316.1C10607.5,1317.01 10608.5,1318.7 10608.5,1320.53C10608.5,1322.36 10607.5,1324.04 10605.9,1324.96C10605.9,1324.96 10578.6,1340.74 10569.7,1345.86C10569.2,1346.18 10568.8,1346.78 10568.8,1347.43C10568.8,1348.08 10569.2,1348.68 10569.7,1349.01C10578.5,1354.07 10605.5,1369.62 10605.5,1369.62C10607.4,1370.66 10608.5,1372.61 10608.5,1374.71C10608.5,1376.81 10607.4,1378.75 10605.5,1379.8C10591.9,1387.65 10566.1,1402.54 10553.7,1409.75C10549.3,1412.28 10543.9,1412.29 10539.5,1409.75C10539.5,1409.75 10509.8,1392.68 10501.2,1387.73C10499.8,1386.91 10498.1,1386.91 10496.6,1387.73C10488.4,1392.46 10461.3,1408.14 10461.3,1408.14C10456.9,1410.68 10451.5,1410.68 10447.1,1408.14C10434.2,1400.75 10407.3,1385.24 10394.1,1377.62C10392.5,1376.7 10391.5,1375.02 10391.5,1373.19C10391.5,1371.36 10392.5,1369.67 10394.1,1368.76C10394.1,1368.76 10421.4,1352.97 10430.3,1347.86Z" style="fill:white;"/>
    </g>
</svg>
