<?xml version="1.0" encoding="UTF-8" standalone="no"?>
<!-- https://cristalix.ru/ -->
<!DOCTYPE svg PUBLIC "-//W3C//DTD SVG 1.1//EN" "http://www.w3.org/Graphics/SVG/1.1/DTD/svg11.dtd">
<svg width="100%" height="100%" viewBox="0 0 140 140" version="1.1" xmlns="http://www.w3.org/2000/svg" xmlns:xlink="http://www.w3.org/1999/xlink" xml:space="preserve" xmlns:serif="http://www.serif.com/" style="fill-rule:evenodd;clip-rule:evenodd;stroke-linejoin:round;stroke-miterlimit:2;">
    <g transform="matrix(1,0,0,1,-708.403,-192.091)">
        <path d="M778.403,210.594C806.825,210.594 829.9,233.669 829.9,262.091C829.9,290.513 806.825,313.588 778.403,313.588C749.982,313.588 726.907,290.513 726.907,262.091C726.907,233.669 749.982,210.594 778.403,210.594ZM772.474,295.42C772.474,297.077 773.818,298.42 775.474,298.42L781.729,298.42C783.386,298.42 784.729,297.077 784.729,295.42L784.729,250.867C784.729,249.21 783.386,247.867 781.729,247.867L775.474,247.867C773.818,247.867 772.474,249.21 772.474,250.867L772.474,295.42ZM772.474,234.617C772.474,236.274 773.818,237.617 775.474,237.617L781.729,237.617C783.386,237.617 784.729,236.274 784.729,234.617L784.729,228.362C784.729,226.705 783.386,225.362 781.729,225.362L775.474,225.362C773.818,225.362 772.474,226.705 772.474,228.362L772.474,234.617Z" style="fill:rgb(161,31,37);"/>
    </g>
</svg>
