<?xml version="1.0" encoding="UTF-8" standalone="no"?>
<!-- https://cristalix.ru/ -->
<!DOCTYPE svg PUBLIC "-//W3C//DTD SVG 1.1//EN" "http://www.w3.org/Graphics/SVG/1.1/DTD/svg11.dtd">
<svg width="100%" height="100%" viewBox="0 0 1000 1000" version="1.1" xmlns="http://www.w3.org/2000/svg" xmlns:xlink="http://www.w3.org/1999/xlink" xml:space="preserve" xmlns:serif="http://www.serif.com/" style="fill-rule:evenodd;clip-rule:evenodd;stroke-linejoin:round;stroke-miterlimit:2;">
    <path d="M500,58.49C743.677,58.49 941.51,256.323 941.51,500C941.51,743.677 743.677,941.51 500,941.51C256.323,941.51 58.49,743.677 58.49,500C58.49,256.323 256.323,58.49 500,58.49ZM500,156.546C310.443,156.546 156.546,310.443 156.546,500C156.546,689.557 310.443,843.454 500,843.454C689.557,843.454 843.454,689.557 843.454,500C843.454,310.443 689.557,156.546 500,156.546ZM500,238.216C644.483,238.216 761.784,355.517 761.784,500C761.784,644.483 644.483,761.784 500,761.784C355.517,761.784 238.216,644.483 238.216,500C238.216,355.517 355.517,238.216 500,238.216Z" style="fill:rgb(255,189,37);"/>
</svg>
